…
As can be seen above, estimates of mean and median have remain unchanged post imputation.

## Are there differences in activity patterns between weekdays and weekends?
1. Create a new factor variable in the dataset with two levels – “weekday”
and “weekend” indicating whether a given date is a weekday or weekend
day.

```r
Wkday <- ifelse(weekdays(as.Date(dfcomplete$date)) %in% c("Saturday", "Sunday"), "WE", "WD")
wday <- factor(Wkday, levels = c("WD", "WE"))
ungroup(dfcomplete)
```

```
## # A tibble: 17,568 x 3
##     steps date       interval
##     <dbl> <chr>         <int>
##  1 1.72   2012-10-01        0
##  2 0.340  2012-10-01        5
##  3 0.132  2012-10-01       10
##  4 0.151  2012-10-01       15
##  5 0.0755 2012-10-01       20
##  6 2.09   2012-10-01       25
##  7 0.528  2012-10-01       30
##  8 0.868  2012-10-01       35
##  9 0      2012-10-01       40
## 10 1.47   2012-10-01       45
## # ... with 17,558 more rows
```
…
